<?xml version="1.0" encoding="UTF-8"?>
<svg width="149" height="164" viewBox="0 0 149 164" fill="none" xmlns="http://www.w3.org/2000/svg">
<path d="M81.7306 0H74.7422V162.25H81.7306V0Z" fill="#0C2A50"/>
<path d="M148.609 27.9353L124.338 44.6646L124.171 44.7793H20.9961V11.0898H124.171L137.645 20.3764L148.609 27.9353Z" fill="#0C2A50"/>
<path fill-rule="evenodd" clip-rule="evenodd" d="M109.084 52.4453C109.084 52.4453 109.08 52.4559 109.072 52.4766H29.6355L5.19531 69.322L29.6355 86.166H132.81V86.1637H132.81V52.4743L109.084 52.4453Z" fill="#0C2A50"/>
<path d="M81.7306 44.7773H74.7422V47.802H81.7306V44.7773Z" fill="#0C2A50"/>
<path d="M81.7306 86.1328H74.7422V89.1574H81.7306V86.1328Z" fill="#0C2A50"/>
<path d="M81.7261 86.1328H79.0039V162.249H81.7261V86.1328Z" fill="#0C2A50"/>
<path d="M71.5154 71.3098C71.1991 71.1675 70.7764 71.0944 70.2599 71.0944H69.9312V63.5632C69.9312 62.363 69.3953 61.7539 68.3388 61.7539C68.0059 61.7539 67.7173 61.8671 67.4811 62.0895C67.2588 62.2994 66.9715 62.6392 66.6276 63.1019L61.4056 70.0875C61.2606 70.2781 61.1391 70.4397 61.041 70.5709C60.9416 70.7035 60.8435 70.843 60.7524 70.9852C60.6571 71.1316 60.5839 71.2753 60.5355 71.4093C60.4858 71.5474 60.4609 71.6855 60.4609 71.8208C60.4609 72.3332 60.6294 72.7448 60.9595 73.0445C61.2882 73.3414 61.7813 73.4933 62.4276 73.4933H67.2795V75.2308C67.2795 75.7459 67.4024 76.1423 67.6441 76.413C67.8886 76.6851 68.2117 76.8246 68.6067 76.8246C69.0017 76.8246 69.3332 76.6892 69.5735 76.4241C69.8124 76.1603 69.9326 75.7597 69.9326 75.2322V73.4947H70.4381C70.9546 73.4947 71.351 73.4008 71.6162 73.2171C71.891 73.0251 72.0319 72.7185 72.0319 72.307C72.0319 71.8029 71.8593 71.4686 71.5181 71.3139L71.5154 71.3098ZM67.2781 65.7522V71.0944H63.324L67.2781 65.7522Z" fill="white"/>
<path d="M81.5925 63.1565C81.1685 62.7256 80.6686 62.3928 80.1065 62.169C79.5457 61.9453 78.9145 61.832 78.2295 61.832C77.1909 61.832 76.2822 62.0875 75.5309 62.5916C74.7795 63.0957 74.1995 63.8388 73.8058 64.7987C73.5807 65.3746 73.4136 66.072 73.3073 66.8703C73.2023 67.6658 73.1484 68.5705 73.1484 69.5621C73.1484 70.3314 73.1967 71.0579 73.292 71.718C73.3873 72.381 73.5406 72.9969 73.7464 73.548C74.1525 74.559 74.7643 75.3614 75.5681 75.9345C76.372 76.5091 77.2945 76.7991 78.3082 76.7991C79.188 76.7991 80.0001 76.5823 80.721 76.1555C81.4406 75.7288 82.0359 75.1142 82.4889 74.327C82.8466 73.6903 83.0966 72.9707 83.2292 72.1876C83.3604 71.4114 83.428 70.4709 83.428 69.3936C83.428 67.4062 83.1725 65.8442 82.6698 64.7531C82.377 64.1219 82.0152 63.5847 81.5925 63.1551V63.1565ZM76.2628 72.2953C76.1206 71.5164 76.0474 70.5013 76.0474 69.2776C76.0474 67.478 76.2159 66.1301 76.5487 65.2724C76.8747 64.4313 77.4368 64.0225 78.2682 64.0225C78.8414 64.0225 79.2944 64.2089 79.6162 64.5763C79.9449 64.952 80.1824 65.521 80.3233 66.2654C80.4656 67.0223 80.5388 68.0084 80.5388 69.1989C80.5388 70.4557 80.4697 71.4832 80.333 72.2566C80.199 73.019 79.9628 73.6102 79.6341 74.0162C79.3082 74.4167 78.869 74.6115 78.2889 74.6115C77.7089 74.6115 77.2973 74.4236 76.9727 74.0397C76.644 73.6502 76.4051 73.0632 76.2642 72.2953H76.2628Z" fill="white"/>
<path d="M95.4958 71.3098C95.1795 71.1675 94.7569 71.0944 94.2404 71.0944H93.9117V63.5632C93.9117 62.363 93.3758 61.7539 92.3192 61.7539C91.9864 61.7539 91.6977 61.8671 91.4616 62.0895C91.2392 62.2994 90.9519 62.6392 90.6081 63.1019L85.3861 70.0875C85.241 70.2781 85.1195 70.4397 85.0215 70.5709C84.922 70.7035 84.824 70.843 84.7328 70.9852C84.6375 71.1316 84.5643 71.2753 84.516 71.4093C84.4662 71.5474 84.4414 71.6855 84.4414 71.8208C84.4414 72.3332 84.6099 72.7448 84.94 73.0445C85.2687 73.3414 85.7617 73.4933 86.4081 73.4933H91.2599V75.2308C91.2599 75.7459 91.3828 76.1423 91.6245 76.413C91.869 76.6851 92.1922 76.8246 92.5872 76.8246C92.9822 76.8246 93.3137 76.6892 93.554 76.4241C93.7929 76.1603 93.913 75.7597 93.913 75.2322V73.4947H94.4185C94.9351 73.4947 95.3314 73.4008 95.5966 73.2171C95.8714 73.0251 96.0123 72.7185 96.0123 72.307C96.0123 71.8029 95.8397 71.4686 95.4986 71.3139L95.4958 71.3098ZM91.2585 65.7522V71.0944H87.3044L91.2585 65.7522Z" fill="white"/>
<path d="M57.3256 24.5575H52.1878V27.3225H56.9181C57.2662 27.3225 57.5258 27.4013 57.6971 27.5573C57.8683 27.7134 57.954 27.9192 57.954 28.1761C57.954 28.4329 57.8697 28.6401 57.6998 28.8017C57.5314 28.9633 57.2703 29.0434 56.9168 29.0434H52.1865V32.2462H57.501C57.8587 32.2462 58.1294 32.3291 58.3117 32.4962C58.494 32.6619 58.5837 32.8843 58.5837 33.1605C58.5837 33.4367 58.4926 33.6425 58.3117 33.8096C58.1294 33.9767 57.8601 34.0596 57.501 34.0596H51.3039C50.8067 34.0596 50.4504 33.9491 50.2322 33.7295C50.014 33.5099 49.9062 33.1536 49.9062 32.6619V24.1985C49.9062 23.8711 49.9546 23.6032 50.0527 23.396C50.1493 23.1889 50.3026 23.0383 50.5098 22.943C50.7169 22.8477 50.9821 22.8008 51.3053 22.8008H57.3256C57.6888 22.8008 57.9595 22.8809 58.1363 23.0425C58.313 23.2041 58.4015 23.4154 58.4015 23.6764C58.4015 23.9374 58.313 24.157 58.1363 24.3172C57.9595 24.4788 57.6902 24.5589 57.3256 24.5589V24.5575Z" fill="white"/>
<path d="M63.4588 29.2437H62.6605V32.8608C62.6605 33.3373 62.5555 33.6881 62.3456 33.9132C62.1357 34.1383 61.8622 34.2516 61.5239 34.2516C61.1606 34.2516 60.8789 34.1342 60.6786 33.898C60.4784 33.6618 60.3789 33.3166 60.3789 32.8608V24.1985C60.3789 23.7068 60.4894 23.3505 60.709 23.1309C60.9286 22.9113 61.2849 22.8008 61.7766 22.8008H65.4863C65.9987 22.8008 66.4365 22.8229 66.7997 22.8657C67.1629 22.9099 67.4903 22.9969 67.7831 23.1309C68.1366 23.28 68.4488 23.4913 68.7195 23.7676C68.9901 24.0438 69.1973 24.3656 69.3382 24.7316C69.4791 25.0976 69.5495 25.4857 69.5495 25.8945C69.5495 26.7342 69.3133 27.4054 68.8396 27.9067C68.3659 28.4081 67.6477 28.7644 66.6851 28.9743C67.0897 29.1898 67.4764 29.5074 67.8452 29.9259C68.214 30.3458 68.5427 30.7919 68.8327 31.2656C69.1214 31.7393 69.3479 32.1675 69.5081 32.5487C69.6696 32.9298 69.7498 33.1923 69.7498 33.3359C69.7498 33.4795 69.7028 33.6314 69.6075 33.7778C69.5122 33.9242 69.3837 34.0389 69.2194 34.1231C69.055 34.2074 68.8658 34.2502 68.6518 34.2502C68.3963 34.2502 68.1808 34.1894 68.0068 34.0693C67.8328 33.9491 67.6836 33.7972 67.5579 33.6121C67.4323 33.4284 67.2624 33.1563 67.0469 32.7986L66.1326 31.278C65.8053 30.7201 65.5111 30.2947 65.2529 30.0033C64.9946 29.7119 64.7322 29.5116 64.4656 29.4039C64.1991 29.2961 63.8635 29.2423 63.4602 29.2423L63.4588 29.2437ZM64.7639 24.5134H62.6591V27.6084H64.7018C65.2501 27.6084 65.71 27.5615 66.0843 27.4662C66.4586 27.3709 66.7431 27.2107 66.9406 26.9828C67.1381 26.7549 67.2361 26.4414 67.2361 26.0422C67.2361 25.7301 67.156 25.4553 66.9986 25.2163C66.8398 24.9788 66.6202 24.8006 66.3384 24.6832C66.0719 24.5714 65.547 24.5147 64.7639 24.5147V24.5134Z" fill="white"/>
<path d="M74.7713 29.2437H73.973V32.8608C73.973 33.3373 73.868 33.6881 73.6581 33.9132C73.4482 34.1383 73.1747 34.2516 72.8364 34.2516C72.4731 34.2516 72.1914 34.1342 71.9911 33.898C71.7908 33.6618 71.6914 33.3166 71.6914 32.8608V24.1985C71.6914 23.7068 71.8019 23.3505 72.0215 23.1309C72.2411 22.9113 72.5974 22.8008 73.0891 22.8008H76.7987C77.3111 22.8008 77.749 22.8229 78.1122 22.8657C78.4754 22.9099 78.8027 22.9969 79.0955 23.1309C79.4491 23.28 79.7612 23.4913 80.0319 23.7676C80.3026 24.0438 80.5098 24.3656 80.6507 24.7316C80.7915 25.0976 80.862 25.4857 80.862 25.8945C80.862 26.7342 80.6258 27.4054 80.1521 27.9067C79.6784 28.4081 78.9602 28.7644 77.9975 28.9743C78.4022 29.1898 78.7889 29.5074 79.1577 29.9259C79.5265 30.3458 79.8551 30.7919 80.1452 31.2656C80.4338 31.7393 80.6603 32.1675 80.8205 32.5487C80.9821 32.9298 81.0622 33.1923 81.0622 33.3359C81.0622 33.4795 81.0153 33.6314 80.92 33.7778C80.8247 33.9242 80.6962 34.0389 80.5319 34.1231C80.3675 34.2074 80.1783 34.2502 79.9642 34.2502C79.7087 34.2502 79.4933 34.1894 79.3193 34.0693C79.1453 33.9491 78.9961 33.7972 78.8704 33.6121C78.7447 33.4284 78.5749 33.1563 78.3594 32.7986L77.4451 31.278C77.1178 30.7201 76.8236 30.2947 76.5654 30.0033C76.3071 29.7119 76.0446 29.5116 75.7781 29.4039C75.5115 29.2961 75.176 29.2423 74.7727 29.2423L74.7713 29.2437ZM76.0764 24.5134H73.9716V27.6084H76.0143C76.5626 27.6084 77.0225 27.5615 77.3968 27.4662C77.7711 27.3709 78.0556 27.2107 78.2531 26.9828C78.4506 26.7549 78.5486 26.4414 78.5486 26.0422C78.5486 25.7301 78.4685 25.4553 78.3111 25.2163C78.1522 24.9788 77.9326 24.8006 77.6509 24.6832C77.3843 24.5714 76.8595 24.5147 76.0764 24.5147V24.5134Z" fill="white"/>
<path d="M87.9775 22.6082C89.1445 22.6082 90.1472 22.8458 90.9842 23.3181C91.8211 23.7918 92.455 24.4644 92.8846 25.3373C93.3141 26.2102 93.5295 27.235 93.5295 28.413C93.5295 29.2831 93.4122 30.0745 93.176 30.7858C92.9398 31.4971 92.5876 32.1144 92.1167 32.6365C91.6457 33.1585 91.067 33.5577 90.3806 33.8339C89.6942 34.1101 88.9084 34.2482 88.0231 34.2482C87.1378 34.2482 86.3533 34.106 85.6572 33.8215C84.9611 33.537 84.3797 33.1364 83.9143 32.6199C83.4488 32.1034 83.0967 31.4805 82.8577 30.754C82.6202 30.0276 82.5 29.2417 82.5 28.3965C82.5 27.5512 82.6243 26.7378 82.8729 26.0154C83.1215 25.2931 83.4806 24.6785 83.9515 24.1717C84.4225 23.6648 84.9957 23.2767 85.6724 23.0088C86.3478 22.7394 87.1157 22.6055 87.9761 22.6055L87.9775 22.6082ZM91.2189 28.3992C91.2189 27.5747 91.0864 26.8607 90.8198 26.2571C90.5533 25.6536 90.1734 25.1964 89.679 24.8857C89.1846 24.5763 88.6183 24.4216 87.9775 24.4216C87.5217 24.4216 87.1005 24.5073 86.7138 24.6785C86.3271 24.8498 85.9942 25.0998 85.7152 25.4271C85.4362 25.7544 85.2166 26.1729 85.0551 26.6825C84.8935 27.1921 84.8134 27.7639 84.8134 28.3992C84.8134 29.0345 84.8935 29.6174 85.0551 30.1353C85.2166 30.6518 85.4445 31.0813 85.7387 31.4211C86.0329 31.7622 86.3713 32.0164 86.7524 32.1849C87.1336 32.3534 87.5521 32.439 88.0079 32.439C88.5921 32.439 89.128 32.2926 89.6169 32.0012C90.1058 31.7098 90.4952 31.2595 90.7839 30.6491C91.0726 30.04 91.2176 29.29 91.2176 28.3992H91.2189Z" fill="white"/>
<path d="M98.5408 29.2437H97.7425V32.8608C97.7425 33.3373 97.6376 33.6881 97.4276 33.9132C97.2177 34.1383 96.9443 34.2516 96.6059 34.2516C96.2427 34.2516 95.9609 34.1342 95.7607 33.898C95.5604 33.6618 95.4609 33.3166 95.4609 32.8608V24.1985C95.4609 23.7068 95.5714 23.3505 95.791 23.1309C96.0106 22.9113 96.367 22.8008 96.8586 22.8008H100.568C101.081 22.8008 101.518 22.8229 101.882 22.8657C102.245 22.9099 102.572 22.9969 102.865 23.1309C103.219 23.28 103.531 23.4913 103.801 23.7676C104.072 24.0438 104.279 24.3656 104.42 24.7316C104.561 25.0976 104.632 25.4857 104.632 25.8945C104.632 26.7342 104.395 27.4054 103.922 27.9067C103.448 28.4081 102.73 28.7644 101.767 28.9743C102.172 29.1898 102.558 29.5074 102.927 29.9259C103.296 30.3458 103.625 30.7919 103.915 31.2656C104.203 31.7393 104.43 32.1675 104.59 32.5487C104.752 32.9298 104.832 33.1923 104.832 33.3359C104.832 33.4795 104.785 33.6314 104.69 33.7778C104.594 33.9242 104.466 34.0389 104.301 34.1231C104.137 34.2074 103.948 34.2502 103.734 34.2502C103.478 34.2502 103.263 34.1894 103.089 34.0693C102.915 33.9491 102.766 33.7972 102.64 33.6121C102.514 33.4284 102.344 33.1563 102.129 32.7986L101.215 31.278C100.887 30.7201 100.593 30.2947 100.335 30.0033C100.077 29.7119 99.8142 29.5116 99.5477 29.4039C99.2811 29.2961 98.9455 29.2423 98.5422 29.2423L98.5408 29.2437ZM99.846 24.5134H97.7412V27.6084H99.7838C100.332 27.6084 100.792 27.5615 101.166 27.4662C101.541 27.3709 101.825 27.2107 102.023 26.9828C102.22 26.7549 102.318 26.4414 102.318 26.0422C102.318 25.7301 102.238 25.4553 102.081 25.2163C101.922 24.9788 101.702 24.8006 101.42 24.6832C101.154 24.5714 100.629 24.5147 99.846 24.5147V24.5134Z" fill="white"/>
<path d="M136.71 160.777H18.3723C17.5691 160.777 16.918 161.428 16.918 162.232V162.273C16.918 163.076 17.5691 163.727 18.3723 163.727H136.71C137.513 163.727 138.164 163.076 138.164 162.273V162.232C138.164 161.428 137.513 160.777 136.71 160.777Z" fill="#0C2A50"/>
<path d="M20.6172 160.777H1.45431C0.65112 160.777 0 161.428 0 162.232V162.273C0 163.076 0.65112 163.727 1.45431 163.727H20.6172C21.4204 163.727 22.0715 163.076 22.0715 162.273V162.232C22.0715 161.428 21.4204 160.777 20.6172 160.777Z" fill="#0C2A50"/>
<path d="M45.4127 157.176H18.5156L19.0045 155.405L19.9603 151.946L20.5389 149.851L21.3925 146.762L23.0374 140.808L23.8909 137.72L29.889 116.008H34.0379L36.2367 123.966L40.0375 137.72L40.8896 140.808L42.5345 146.762L43.3881 149.851L44.9224 155.405L45.4127 157.176Z" fill="#0C2A50"/>
<path d="M50.9149 157.18H13.0117V160.783H50.9149V157.18Z" fill="#0C2A50"/>
<path d="M45.4127 157.177H18.5156L19.0045 155.406H44.9224L45.4127 157.177Z" fill="#232851"/>
<path d="M40.8874 140.807H23.0352L23.8887 137.719H40.0353L40.8874 140.807Z" fill="white"/>
<path d="M43.3882 149.85H20.5391L21.3926 146.762H42.5346L43.3882 149.85Z" fill="white"/>
</svg>
