<svg width="29" height="29" viewBox="0 0 29 29" fill="none" xmlns="http://www.w3.org/2000/svg">
<circle cx="14.5" cy="14.5" r="14" stroke="#0C2A50"/>
<line x1="8" y1="14.5" x2="21" y2="14.5" stroke="#012147"/>
<line x1="14.5" y1="21" x2="14.5" y2="8" stroke="#012147"/>
</svg>
