<svg width="29" height="29" viewBox="0 0 29 29" fill="none" xmlns="http://www.w3.org/2000/svg">
<circle cx="14.5" cy="14.5" r="14" stroke="#0C2A50"/>
<line x1="9.90238" y1="9.90377" x2="19.0948" y2="19.0962" stroke="#012147"/>
<line x1="9.90328" y1="19.0962" x2="19.0957" y2="9.90376" stroke="#012147"/>
</svg>
