<svg width="28" height="28" viewBox="0 0 28 28" fill="none" xmlns="http://www.w3.org/2000/svg">
<rect width="28" height="28" rx="14" fill="#B7E588"/>
<path d="M11.3477 20.4053C9.83109 20.4053 8.4638 19.4917 7.88332 18.0906C7.30283 16.6895 7.62346 15.0766 8.69571 14.004L10.2872 12.4125L11.3477 13.473L9.75697 15.0638C9.18851 15.6322 8.9665 16.4608 9.17457 17.2373C9.38264 18.0138 9.98917 18.6204 10.7657 18.8284C11.5422 19.0365 12.3708 18.8145 12.9392 18.246L14.53 16.6553L15.5905 17.7165L13.9997 19.3073C13.2978 20.0127 12.3429 20.4081 11.3477 20.4053ZM11.878 17.1855L10.8175 16.125L16.1207 10.8218L17.1812 11.8823L11.8787 17.1848L11.878 17.1855ZM17.7122 15.5948L16.651 14.5343L18.2417 12.9435C18.8179 12.3768 19.0459 11.5445 18.8389 10.7633C18.6319 9.98202 18.0218 9.37178 17.2406 9.16463C16.4594 8.95747 15.6271 9.18523 15.0602 9.76129L13.4687 11.352L12.4082 10.2915L13.9997 8.70004C15.466 7.24652 17.8314 7.2517 19.2914 8.71163C20.7513 10.1716 20.7565 12.537 19.303 14.0033L17.7122 15.594V15.5948Z" fill="#0C2A50"/>
</svg>
