<svg width="68" height="68" viewBox="0 0 68 68" fill="none" xmlns="http://www.w3.org/2000/svg">
<circle cx="34" cy="34" r="34" fill="url(#paint0_linear_205_1771)"/>
<g clip-path="url(#clip0_205_1771)">
<path d="M46.8965 39.2279H37.8965V33.5612V20.8945C37.8965 20.3425 37.4485 19.8945 36.8965 19.8945C36.3445 19.8945 35.8965 20.3425 35.8965 20.8945V32.5612H34.5258L31.3885 23.6745C30.8725 22.2105 29.4832 21.2279 27.9312 21.2279H23.5632C23.0112 21.2279 22.5632 21.6759 22.5632 22.2279V29.2279H19.5632C17.5405 29.2279 15.8965 30.8719 15.8965 32.8945V38.8945C15.8965 40.1812 16.9432 41.2279 18.2298 41.2279H18.6312C18.9405 42.7479 20.2872 43.8945 21.8965 43.8945C23.5058 43.8945 24.8525 42.7479 25.1618 41.2279H27.9632C28.2725 42.7479 29.6192 43.8945 31.2285 43.8945C32.8378 43.8945 34.1845 42.7479 34.4938 41.2279H36.8952H46.8952C47.4472 41.2279 47.8952 40.7799 47.8952 40.2279C47.8952 39.6759 47.4485 39.2279 46.8965 39.2279ZM24.5632 23.2279H27.9312C28.6365 23.2279 29.2685 23.6745 29.5032 24.3399L32.4045 32.5612H26.2298C25.3112 32.5612 24.5632 31.8132 24.5632 30.8945V30.2279V23.2279ZM21.8965 41.8945C21.1605 41.8945 20.5632 41.2959 20.5632 40.5612C20.5632 39.8265 21.1605 39.2279 21.8965 39.2279C22.6325 39.2279 23.2298 39.8265 23.2298 40.5612C23.2298 41.2959 22.6325 41.8945 21.8965 41.8945ZM31.2298 41.8945C30.4938 41.8945 29.8965 41.2959 29.8965 40.5612C29.8965 39.8265 30.4938 39.2279 31.2298 39.2279C31.9658 39.2279 32.5632 39.8265 32.5632 40.5612C32.5632 41.2959 31.9658 41.8945 31.2298 41.8945Z" fill="white"/>
<path d="M44.8965 30.5625V31.5625C44.8965 32.1145 44.4485 32.5625 43.8965 32.5625C43.3445 32.5625 42.8965 32.1145 42.8965 31.5625V30.5625H40.5632C40.1952 30.5625 39.8965 30.8612 39.8965 31.2292V36.5625C39.8965 36.9305 40.1952 37.2292 40.5632 37.2292H47.2298C47.5978 37.2292 47.8965 36.9305 47.8965 36.5625V31.2292C47.8965 30.8612 47.5978 30.5625 47.2298 30.5625H44.8965Z" fill="white"/>
<path d="M44.8965 22.5625V23.5625C44.8965 24.1145 44.4485 24.5625 43.8965 24.5625C43.3445 24.5625 42.8965 24.1145 42.8965 23.5625V22.5625H40.5632C40.1952 22.5625 39.8965 22.8612 39.8965 23.2292V28.5625C39.8965 28.9305 40.1952 29.2292 40.5632 29.2292H47.2298C47.5978 29.2292 47.8965 28.9305 47.8965 28.5625V23.2292C47.8965 22.8612 47.5978 22.5625 47.2298 22.5625H44.8965Z" fill="white"/>
</g>
<defs>
<linearGradient id="paint0_linear_205_1771" x1="34" y1="0" x2="34" y2="68" gradientUnits="userSpaceOnUse">
<stop stop-color="#1762C4"/>
<stop offset="1" stop-color="#073572"/>
</linearGradient>
<clipPath id="clip0_205_1771">
<rect width="32" height="32" fill="white" transform="translate(15.8965 15.8945)"/>
</clipPath>
</defs>
</svg>
