<?xml version="1.0" encoding="UTF-8"?>
<svg width="80" height="80" viewBox="0 0 80 80" fill="none" xmlns="http://www.w3.org/2000/svg">
<circle cx="40" cy="40" r="40" fill="#B7E588"/>
<path d="M34.8482 29.4979L49.9301 39.1336C50.9232 39.768 50.8936 41.2283 49.8757 41.8221L34.7938 50.6198C33.7435 51.2325 32.4245 50.4749 32.4245 49.259V30.8256C32.4245 29.5811 33.7995 28.8279 34.8482 29.4979Z" fill="#0C2A50" stroke="#0C2A50" stroke-width="1.15094" stroke-linecap="round"/>
</svg>
