<svg width="24" height="24" viewBox="0 0 24 24" fill="none" xmlns="http://www.w3.org/2000/svg">
<path d="M17.8805 9.72619C17.8805 9.72619 17.7633 8.94196 17.4023 8.59761C16.9453 8.1444 16.4344 8.14218 16.2 8.11552C14.5219 8 12.0023 8 12.0023 8H11.9977C11.9977 8 9.47813 8 7.8 8.11552C7.56563 8.14218 7.05469 8.1444 6.59766 8.59761C6.23672 8.94196 6.12187 9.72619 6.12187 9.72619C6.12187 9.72619 6 10.6482 6 11.5679V12.4299C6 13.3496 6.11953 14.2716 6.11953 14.2716C6.11953 14.2716 6.23672 15.0558 6.59531 15.4002C7.05234 15.8534 7.65234 15.8378 7.91953 15.8867C8.88047 15.9733 12 16 12 16C12 16 14.5219 15.9956 16.2 15.8823C16.4344 15.8556 16.9453 15.8534 17.4023 15.4002C17.7633 15.0558 17.8805 14.2716 17.8805 14.2716C17.8805 14.2716 18 13.3518 18 12.4299V11.5679C18 10.6482 17.8805 9.72619 17.8805 9.72619ZM10.7602 13.4763V10.2794L14.0016 11.8834L10.7602 13.4763Z" fill="white"/>
<rect x="0.5" y="0.5" width="23" height="23" rx="11.5" stroke="white"/>
</svg>
